Biostat 203B Homework 2
…
Import icustatys.csv.gz as a tibble icustays_tble.

icustays_tble = read_csv(str_c(mimic_path, "/icu/icustays.csv.gz"))

How many unique subject_id? Can a subject_id have multiple ICU stays?

icustays_tble = arrange(icustays_tble,subject_id)
icustays_tble

# A tibble: 76,540 × 8
   subject_id  hadm_id  stay_id first_careunit       last_…¹ intime             
        <dbl>    <dbl>    <dbl> <chr>                <chr>   <dttm>             
 1   10000032 29079034 39553978 Medical Intensive C… Medica… 2180-07-23 14:00:00
 2   10000980 26913865 39765666 Medical Intensive C… Medica… 2189-06-27 08:42:00
 3   10001217 27703517 34592300 Surgical Intensive … Surgic… 2157-12-19 15:42:24
 4   10001217 24597018 37067082 Surgical Intensive … Surgic… 2157-11-20 19:18:02
 5   10001725 25563031 31205490 Medical/Surgical In… Medica… 2110-04-11 15:52:22
 6   10001884 26184834 37510196 Medical Intensive C… Medica… 2131-01-11 04:20:05
 7   10002013 23581541 39060235 Cardiac Vascular In… Cardia… 2160-05-18 10:00:53
 8   10002155 28994087 31090461 Medical/Surgical In… Medica… 2130-09-24 00:50:00
 9   10002155 20345487 32358465 Medical Intensive C… Medica… 2131-03-09 21:33:00
10   10002155 23822395 33685454 Coronary Care Unit … Corona… 2129-08-04 12:45:00
# … with 76,530 more rows, 2 more variables: outtime <dttm>, los <dbl>, and
#   abbreviated variable name ¹​last_careunit

a subject_id can have multiple ICU stays

id_uniq = distinct(icustays_tble,subject_id) %>%
  arrange() %>%
  print()

# A tibble: 53,150 × 1
   subject_id
        <dbl>
 1   10000032
 2   10000980
 3   10001217
 4   10001725
 5   10001884
 6   10002013
 7   10002155
 8   10002223
 9   10002348
10   10002428
# … with 53,140 more rows
…
This graph shows counts for each repetition time of each id.

For each subject_id, let’s only keep the first ICU stay in the tibble icustays_tble. (Hint: slice_min and slice_max may take long. Think alternative ways to achieve the same function.)

icustays_tble = icustays_tble %>%
  arrange(subject_id,intime) %>%
  distinct(subject_id, .keep_all = T) %>%
  print(width = Inf)

# A tibble: 53,150 × 8
   subject_id  hadm_id  stay_id first_careunit                                  
        <dbl>    <dbl>    <dbl> <chr>                                           
 1   10000032 29079034 39553978 Medical Intensive Care Unit (MICU)              
 2   10000980 26913865 39765666 Medical Intensive Care Unit (MICU)              
 3   10001217 24597018 37067082 Surgical Intensive Care Unit (SICU)             
 4   10001725 25563031 31205490 Medical/Surgical Intensive Care Unit (MICU/SICU)
 5   10001884 26184834 37510196 Medical Intensive Care Unit (MICU)              
 6   10002013 23581541 39060235 Cardiac Vascular Intensive Care Unit (CVICU)    
 7   10002155 23822395 33685454 Coronary Care Unit (CCU)                        
 8   10002223 22494570 39638202 Trauma SICU (TSICU)                             
 9   10002348 22725460 32610785 Neuro Intermediate                              
10   10002428 28662225 33987268 Medical Intensive Care Unit (MICU)              
   last_careunit                                    intime             
   <chr>                                            <dttm>             
 1 Medical Intensive Care Unit (MICU)               2180-07-23 14:00:00
 2 Medical Intensive Care Unit (MICU)               2189-06-27 08:42:00
 3 Surgical Intensive Care Unit (SICU)              2157-11-20 19:18:02
 4 Medical/Surgical Intensive Care Unit (MICU/SICU) 2110-04-11 15:52:22
 5 Medical Intensive Care Unit (MICU)               2131-01-11 04:20:05
 6 Cardiac Vascular Intensive Care Unit (CVICU)     2160-05-18 10:00:53
 7 Coronary Care Unit (CCU)                         2129-08-04 12:45:00
 8 Trauma SICU (TSICU)                              2158-01-15 08:01:49
 9 Neuro Intermediate                               2112-11-30 23:24:00
10 Medical Intensive Care Unit (MICU)               2156-04-12 16:24:18
   outtime               los
   <dttm>              <dbl>
 1 2180-07-23 23:50:47 0.410
 2 2189-06-27 20:38:27 0.498
 3 2157-11-21 22:08:00 1.12 
 4 2110-04-12 23:59:56 1.34 
 5 2131-01-20 08:27:30 9.17 
 6 2160-05-19 17:33:33 1.31 
 7 2129-08-10 17:02:38 6.18 
 8 2158-01-16 15:19:24 1.30 
 9 2112-12-10 18:25:13 9.79 
10 2156-04-17 15:57:08 4.98 
# … with 53,140 more rows
…
Import patients.csv.gz (https://mimic.mit.edu/docs/iv/modules/hosp/patients/) as a tibble patients_tble and only keep the patients who have a match in icustays_tble (according to subject_id).

patients_tble = read_csv(str_c(mimic_path,'/core/patients.csv.gz'))
patients_tble = patients_tble %>%
  arrange(subject_id) %>%
  semi_join(icustays_tble) %>%
  print(width = Inf)

# A tibble: 53,150 × 6
   subject_id gender anchor_age anchor_year anchor_year_group dod       
        <dbl> <chr>       <dbl>       <dbl> <chr>             <date>    
 1   10000032 F              52        2180 2014 - 2016       NA        
 2   10000980 F              73        2186 2008 - 2010       NA        
 3   10001217 F              55        2157 2011 - 2013       NA        
 4   10001725 F              46        2110 2011 - 2013       NA        
 5   10001884 F              68        2122 2008 - 2010       2131-01-20
 6   10002013 F              53        2156 2008 - 2010       NA        
 7   10002155 F              80        2128 2008 - 2010       2131-03-10
 8   10002223 M              21        2158 2008 - 2010       NA        
 9   10002348 F              77        2112 2017 - 2019       NA        
10   10002428 F              80        2155 2011 - 2013       NA        
# … with 53,140 more rows
…
itemid_interested = c(50912, 50971, 50983, 50902, 50882, 51221, 
                      51301, 50931)
labevents_tble = labevents %>%
  filter(itemid %in% itemid_interested) %>%
  semi_join(icustays_tble, by = 'subject_id') %>%
  print()

# A tibble: 13,926,853 × 4
   subject_id itemid charttime           valuenum
        <dbl>  <dbl> <dttm>                 <dbl>
 1   10003700  50882 2162-11-15 17:00:00     27  
 2   10003700  50902 2162-11-15 17:00:00    103  
 3   10003700  50912 2162-11-15 17:00:00      1  
 4   10003700  50931 2162-11-15 17:00:00     93  
 5   10003700  50971 2162-11-15 17:00:00      4.1
 6   10003700  50983 2162-11-15 17:00:00    141  
 7   10003700  51221 2162-11-15 17:00:00     40  
 8   10003700  51301 2162-11-15 17:00:00      6.7
 9   10003700  51221 2165-04-24 03:40:00     41  
10   10003700  51301 2165-04-24 03:40:00      5.8
# … with 13,926,843 more rows
…
labevents_tble = labevents_tble %>%
  left_join(select(icustays_tble, subject_id, intime, outtime),  
          by=  c('subject_id')) %>% 
  filter(charttime >= intime & charttime <= outtime) %>% 
  group_by(subject_id, itemid) %>%
  arrange(charttime, .by_group = T) %>%
  slice_head(n = 1) %>%
  ungroup() %>%
  select(-intime, -outtime, -charttime) %>%
  pivot_wider(names_from = itemid, values_from = valuenum) %>%
  rename_at(vars(as.character(dlabitems_tble$itemid)),
            ~str_to_lower(dlabitems_tble$label))%>%
  print(width = Inf)

# A tibble: 51,618 × 9
   subject_id bicarbonate chloride creatinine glucose potassium sodium
        <dbl>       <dbl>    <dbl>      <dbl>   <dbl>     <dbl>  <dbl>
 1   10000032          21      102        0.5     115       4.7    132
 2   10001217          23      104        0.4     113       3.6    138
 3   10001725          24      106        0.8     146       3.9    140
 4   10001884          33       96        1.1     148       4      136
 5   10002013          23      109        1.1      98       4      140
 6   10002155          25      106        0.9      95       4.5    139
 7   10002223          26      102        0.8      88       3.9    138
 8   10002348          23      107        0.8     127       4.8    142
 9   10002428          20       98        0.8      99       3.9    129
10   10002430          22      105        2.2     128       3.8    144
   hematocrit `white blood cells`
        <dbl>               <dbl>
 1       NA                  NA  
 2       33.6                19  
 3       39.1                17  
 4       36                  18.4
 5       28.6                18.2
 6       37.9                 5.5
 7       32.5                10.1
 8       39.3                 4.3
 9       28.7                22.4
10       36.6                10.3
# … with 51,608 more rows
…
We are interested in the vitals for ICU patients: heart rate (220045), mean non-invasive blood pressure (220181), systolic non-invasive blood pressure (220179), body temperature in Fahrenheit (223761), and respiratory rate (220210). Retrieve a subset of chartevents.csv.gz only containing these items for the patients in icustays_tble as a tibble chartevents_tble.

Hint: chartevents.csv.gz is a data file too big to be read in by the read_csv function in its default setting. Utilize the col_select option in the read_csv function to reduce the memory burden. It took my computer >15 minutes to ingest this file. If your computer really has trouble importing chartevents.csv.gz, you can import from the reduced data file chartevents_filtered_itemid.csv.gz.

chartevents_tble = read_csv(str_c(mimic_path, "/icu/chartevents_filtered_itemid.csv.gz"), col_select = c('subject_id', 'itemid', 'charttime', 'valuenum' ))

itemid_interested2 = c(220045, 220181, 220179, 223761, 220210)

chartevents_tble = chartevents_tble %>% 
  filter(itemid %in% itemid_interested2) %>%
  semi_join(icustays_tble, by = 'subject_id') %>%
  print()

# A tibble: 23,679,058 × 4
   subject_id itemid charttime           valuenum
        <dbl>  <dbl> <dttm>                 <dbl>
 1   10003700 220179 2165-04-24 05:28:00    152  
 2   10003700 220181 2165-04-24 05:28:00    110  
 3   10003700 220045 2165-04-24 05:30:00     65  
 4   10003700 220210 2165-04-24 05:30:00     14  
 5   10003700 223761 2165-04-24 05:38:00     97.6
 6   10003700 220045 2165-04-24 06:00:00     56  
 7   10003700 220179 2165-04-24 06:00:00    126  
 8   10003700 220181 2165-04-24 06:00:00     88  
 9   10003700 220210 2165-04-24 06:00:00     14  
10   10003700 220045 2165-04-24 06:09:00     55  
# … with 23,679,048 more rows
…
chartevents_tble = chartevents_tble %>%
  left_join(select(icustays_tble, subject_id, intime, outtime),  
          by=  c('subject_id')) %>% 
  filter(charttime >= intime & charttime <= outtime) %>% 
  group_by(subject_id, itemid) %>%
  arrange(charttime, .by_group = T) %>%
  slice_head(n = 1) %>%
  ungroup() %>%
  select(-intime, -outtime, -charttime) %>%
  pivot_wider(names_from = itemid, values_from = valuenum) %>%
  rename_at(vars(as.character(ditems_tble$itemid)),
            ~str_to_lower(ditems_tble$label))%>%
  print(width = Inf)

# A tibble: 53,136 × 6
   subject_id `heart rate` `non invasive blood pressure systolic`
        <dbl>        <dbl>                                  <dbl>
 1   10000032           91                                     84
 2   10000980           77                                    150
 3   10001217           86                                    151
 4   10001725           55                                     73
 5   10001884           38                                    180
 6   10002013           80                                    104
 7   10002155           68                                    126
 8   10002223          100                                    123
 9   10002348           72                                    129
10   10002428          124                                     87
   `non invasive blood pressure mean` `respiratory rate`
                                <dbl>              <dbl>
 1                                 56                 24
 2                                 92                 23
 3                                104                 18
 4                                 59                 19
 5                                 46                 10
 6                                 77                 14
 7                                 78                 18
 8                                 80                 29
 9                                 85                 14
10                                 53                 25
   `temperature fahrenheit`
                      <dbl>
 1                     98.7
 2                     98  
 3                     98.5
 4                     97.7
 5                     98.1
 6                     97.2
 7                     95.9
 8                     98.6
 9                     97.9
10                    103. 
# … with 53,126 more rows
…
an indicator variable thirty_day_mort whether the patient died within 30 days of hospital admission (30 day mortality)

mimic_icu_cohort = icustays_tble %>%
  left_join(admissions_tble, by = c('subject_id')) %>%
  left_join(patients_tble, by = c('subject_id')) %>%
  left_join(labevents_tble, by = c('subject_id')) %>%
  left_join(chartevents_tble, by = c('subject_id')) %>%
  mutate(age_adm = anchor_age + year(admittime) - anchor_year) %>%
  filter(age_adm > 18) %>%
  mutate(thirty_day_mort = ifelse(is.na(deathtime), 'False',
  ifelse(as.Date(deathtime) - as.Date(admittime) <= 30, 'True', 'False'))) %>%
  print()

# A tibble: 53,065 × 42
   subject_id hadm_id.x  stay_id first_careunit      last_…¹ intime             
        <dbl>     <dbl>    <dbl> <chr>               <chr>   <dttm>             
 1   10000032  29079034 39553978 Medical Intensive … Medica… 2180-07-23 14:00:00
 2   10000980  26913865 39765666 Medical Intensive … Medica… 2189-06-27 08:42:00
 3   10001217  24597018 37067082 Surgical Intensive… Surgic… 2157-11-20 19:18:02
 4   10001725  25563031 31205490 Medical/Surgical I… Medica… 2110-04-11 15:52:22
 5   10001884  26184834 37510196 Medical Intensive … Medica… 2131-01-11 04:20:05
 6   10002013  23581541 39060235 Cardiac Vascular I… Cardia… 2160-05-18 10:00:53
 7   10002155  23822395 33685454 Coronary Care Unit… Corona… 2129-08-04 12:45:00
 8   10002223  22494570 39638202 Trauma SICU (TSICU) Trauma… 2158-01-15 08:01:49
 9   10002348  22725460 32610785 Neuro Intermediate  Neuro … 2112-11-30 23:24:00
10   10002428  28662225 33987268 Medical Intensive … Medica… 2156-04-12 16:24:18
# … with 53,055 more rows, 36 more variables: outtime <dttm>, los <dbl>,
#   hadm_id.y <dbl>, admittime <dttm>, dischtime <dttm>, deathtime <dttm>,
#   admission_type <chr>, admission_location <chr>, discharge_location <chr>,
#   insurance <chr>, language <chr>, marital_status <chr>, ethnicity <chr>,
#   edregtime <dttm>, edouttime <dttm>, hospital_expire_flag <dbl>,
#   gender <chr>, anchor_age <dbl>, anchor_year <dbl>, anchor_year_group <chr>,
#   dod <date>, bicarbonate <dbl>, chloride <dbl>, creatinine <dbl>, …
…
